{
    "b8114d2d-5bec-f9ba-b674-18f5b4bbc628": {
        "paletteKey": "FlexLayoutCol",
        "designerReference": [
            {
                "_key": "componentLabel",
                "_value": "Column",
                "_type": "kv",
                "_attrDef": "p",
                "_useAsLabel": true
            },
            {
                "_key": "style",
                "_value": "",
                "_type": "kv",
                "_attrDef": "p"
            },
            {
                "_key": "class",
                "_value": "",
                "_type": "kv",
                "_attrDef": "p"
            },
            {
                "_key": "fxFlex",
                "_value": "100",
                "_type": "kv",
                "_attrDef": "p"
            },
            {
                "_key": "fxLayoutGap",
                "_value": "",
                "_type": "kv",
                "_attrDef": "p"
            },
            {
                "_key": "wrap",
                "_value": "wrap",
                "_type": "a",
                "_attrDef": "p"
            },
            {
                "_key": "layoutAlign",
                "_value": "space-around",
                "_type": "a",
                "_attrDef": "p"
            },
            {
                "_key": "pLayoutAlign",
                "_value": "center",
                "_type": "a",
                "_attrDef": "p"
            },
            {
                "_key": "fxShow",
                "_value": "true",
                "_type": "kv",
                "_attrDef": "p"
            },
            {
                "_key": "fxHide",
                "_value": "false",
                "_type": "kv",
                "_attrDef": "p"
            }
        ],
        "597ea349-b4fa-b25e-add5-afc273e2436e": {
            "paletteKey": "ad-card",
            "parentEditorKey": "b8114d2d-5bec-f9ba-b674-18f5b4bbc628",
            "isAdvancedComponent": true,
            "designerReference": [
                {
                    "_key": "componentLabel",
                    "_value": "Card",
                    "_type": "kv",
                    "_attrDef": "p",
                    "_useAsLabel": true
                },
                {
                    "_key": "style",
                    "_value": "width:400px;",
                    "_type": "kv",
                    "_attrDef": "p"
                },
                {
                    "_key": "class",
                    "_value": "",
                    "_type": "kv",
                    "_attrDef": "p"
                },
                {
                    "_key": "tabindex",
                    "_value": "",
                    "_type": "kv",
                    "_attrDef": "p"
                }
            ],
            "9c67af03-ac7a-e5a6-5cbc-7fe082598c90": {
                "paletteKey": "ng-card-content",
                "parentEditorKey": "597ea349-b4fa-b25e-add5-afc273e2436e",
                "isAdvancedChildComponent": true,
                "designerReference": [
                    {
                        "_key": "style",
                        "_value": "",
                        "_type": "kv",
                        "_attrDef": "p"
                    },
                    {
                        "_key": "class",
                        "_value": "",
                        "_type": "kv",
                        "_attrDef": "p"
                    },
                    {
                        "_key": "align",
                        "_value": "",
                        "_type": "kv",
                        "_attrDef": "p"
                    }
                ],
                "a2155261-b2e6-0c0c-87e8-31caa1b4be8c": {
                    "paletteKey": "NG-Form",
                    "parentEditorKey": "9c67af03-ac7a-e5a6-5cbc-7fe082598c90",
                    "designerReference": [
                        {
                            "_key": "componentLabel",
                            "_value": "Form",
                            "_type": "kv",
                            "_attrDef": "p",
                            "_useAsLabel": true
                        },
                        {
                            "_key": "style",
                            "_value": "",
                            "_type": "kv",
                            "_attrDef": "p"
                        },
                        {
                            "_key": "class",
                            "_value": "",
                            "_type": "kv",
                            "_attrDef": "p"
                        },
                        {
                            "_key": "action",
                            "_value": "",
                            "_type": "kv",
                            "_attrDef": "p"
                        },
                        {
                            "_key": "method",
                            "_value": "",
                            "_type": "kv",
                            "_attrDef": "p"
                        },
                        {
                            "_key": "target",
                            "_value": "",
                            "_type": "kv",
                            "_attrDef": "p"
                        },
                        {
                            "_key": "(onsubmit)",
                            "_value": "",
                            "_type": "kv",
                            "_attrDef": "p"
                        },
                        {
                            "_key": "(onreset)",
                            "_value": "",
                            "_type": "kv",
                            "_attrDef": "p"
                        },
                        {
                            "_key": "[formGroup]",
                            "_value": "loginForm",
                            "_type": "kv",
                            "_attrDef": "c"
                        }
                    ],
                    "44bae28c-e854-b972-0e24-214dfc0ca410": {
                        "paletteKey": "FlexLayoutCol",
                        "parentEditorKey": "a2155261-b2e6-0c0c-87e8-31caa1b4be8c",
                        "designerReference": [
                            {
                                "_key": "componentLabel",
                                "_value": "Column",
                                "_type": "kv",
                                "_attrDef": "p",
                                "_useAsLabel": true
                            },
                            {
                                "_key": "style",
                                "_value": "",
                                "_type": "kv",
                                "_attrDef": "p"
                            },
                            {
                                "_key": "class",
                                "_value": "",
                                "_type": "kv",
                                "_attrDef": "p"
                            },
                            {
                                "_key": "fxFlex",
                                "_value": "100",
                                "_type": "kv",
                                "_attrDef": "p"
                            },
                            {
                                "_key": "fxLayoutGap",
                                "_value": "",
                                "_type": "kv",
                                "_attrDef": "p"
                            },
                            {
                                "_key": "wrap",
                                "_value": "wrap",
                                "_type": "a",
                                "_attrDef": "p"
                            },
                            {
                                "_key": "layoutAlign",
                                "_value": "space-around",
                                "_type": "a",
                                "_attrDef": "p"
                            },
                            {
                                "_key": "pLayoutAlign",
                                "_value": "center",
                                "_type": "a",
                                "_attrDef": "p"
                            },
                            {
                                "_key": "fxShow",
                                "_value": "true",
                                "_type": "kv",
                                "_attrDef": "p"
                            },
                            {
                                "_key": "fxHide",
                                "_value": "false",
                                "_type": "kv",
                                "_attrDef": "p"
                            }
                        ],
                        "07c355db-1802-c2b1-4f96-b439cb3df611": {
                            "paletteKey": "FlexLayoutRow",
                            "parentEditorKey": "44bae28c-e854-b972-0e24-214dfc0ca410",
                            "designerReference": [
                                {
                                    "_key": "componentLabel",
                                    "_value": "Row",
                                    "_type": "kv",
                                    "_attrDef": "p",
                                    "_useAsLabel": true
                                },
                                {
                                    "_key": "style",
                                    "_value": "",
                                    "_type": "kv",
                                    "_attrDef": "p"
                                },
                                {
                                    "_key": "class",
                                    "_value": "",
                                    "_type": "kv",
                                    "_attrDef": "p"
                                },
                                {
                                    "_key": "fxFlex",
                                    "_value": "",
                                    "_type": "kv",
                                    "_attrDef": "p"
                                },
                                {
                                    "_key": "fxLayoutGap",
                                    "_value": "",
                                    "_type": "kv",
                                    "_attrDef": "p"
                                },
                                {
                                    "_key": "wrap",
                                    "_value": "wrap",
                                    "_type": "a",
                                    "_attrDef": "p"
                                },
                                {
                                    "_key": "layoutAlign",
                                    "_value": "start",
                                    "_type": "a",
                                    "_attrDef": "p"
                                },
                                {
                                    "_key": "pLayoutAlign",
                                    "_value": "stretch",
                                    "_type": "a",
                                    "_attrDef": "p"
                                },
                                {
                                    "_key": "fxShow",
                                    "_value": "true",
                                    "_type": "kv",
                                    "_attrDef": "p"
                                },
                                {
                                    "_key": "fxHide",
                                    "_value": "false",
                                    "_type": "kv",
                                    "_attrDef": "p"
                                }
                            ],
                            "dc28313d-fca4-d97b-9ca4-2a638b082912": {
                                "paletteKey": "HTML",
                                "parentEditorKey": "07c355db-1802-c2b1-4f96-b439cb3df611",
                                "designerReference": [
                                    {
                                        "_key": "componentLabel",
                                        "_value": "HTML",
                                        "_type": "kv",
                                        "_attrDef": "p",
                                        "_useAsLabel": true
                                    },
                                    {
                                        "_key": "style",
                                        "_value": "",
                                        "_type": "kv",
                                        "_attrDef": "p"
                                    },
                                    {
                                        "_key": "class",
                                        "_value": "",
                                        "_type": "kv",
                                        "_attrDef": "p"
                                    },
                                    {
                                        "_key": "html",
                                        "_value": "<h2>Telus Login</h2>",
                                        "_type": "a",
                                        "_attrDef": "p"
                                    }
                                ]
                            }
                        },
                        "1867d748-5da2-e8c0-7573-904a411edc11": {
                            "paletteKey": "FlexLayoutRow",
                            "parentEditorKey": "44bae28c-e854-b972-0e24-214dfc0ca410",
                            "designerReference": [
                                {
                                    "_key": "componentLabel",
                                    "_value": "Row",
                                    "_type": "kv",
                                    "_attrDef": "p",
                                    "_useAsLabel": true
                                },
                                {
                                    "_key": "style",
                                    "_value": "",
                                    "_type": "kv",
                                    "_attrDef": "p"
                                },
                                {
                                    "_key": "class",
                                    "_value": "",
                                    "_type": "kv",
                                    "_attrDef": "p"
                                },
                                {
                                    "_key": "fxFlex",
                                    "_value": "",
                                    "_type": "kv",
                                    "_attrDef": "p"
                                },
                                {
                                    "_key": "fxLayoutGap",
                                    "_value": "",
                                    "_type": "kv",
                                    "_attrDef": "p"
                                },
                                {
                                    "_key": "wrap",
                                    "_value": "wrap",
                                    "_type": "a",
                                    "_attrDef": "p"
                                },
                                {
                                    "_key": "layoutAlign",
                                    "_value": "start",
                                    "_type": "a",
                                    "_attrDef": "p"
                                },
                                {
                                    "_key": "pLayoutAlign",
                                    "_value": "stretch",
                                    "_type": "a",
                                    "_attrDef": "p"
                                },
                                {
                                    "_key": "fxShow",
                                    "_value": "true",
                                    "_type": "kv",
                                    "_attrDef": "p"
                                },
                                {
                                    "_key": "fxHide",
                                    "_value": "false",
                                    "_type": "kv",
                                    "_attrDef": "p"
                                }
                            ],
                            "d572a732-6821-2ce3-bc62-250c4b8ecd3d": {
                                "paletteKey": "HTML",
                                "parentEditorKey": "1867d748-5da2-e8c0-7573-904a411edc11",
                                "designerReference": [
                                    {
                                        "_key": "componentLabel",
                                        "_value": "HTML",
                                        "_type": "kv",
                                        "_attrDef": "p",
                                        "_useAsLabel": true
                                    },
                                    {
                                        "_key": "style",
                                        "_value": "",
                                        "_type": "kv",
                                        "_attrDef": "p"
                                    },
                                    {
                                        "_key": "class",
                                        "_value": "",
                                        "_type": "kv",
                                        "_attrDef": "p"
                                    },
                                    {
                                        "_key": "html",
                                        "_value": "<mat-form-field  class=\"field-width\">\n\t<input matInput placeholder=\"Username\" formControlName=\"username\" value=\"\" type=\"text\">\n</mat-form-field>",
                                        "_type": "a",
                                        "_attrDef": "p"
                                    }
                                ]
                            }
                        },
                        "d3370a81-c14f-6b21-2ac1-80279d194f57": {
                            "paletteKey": "FlexLayoutRow",
                            "parentEditorKey": "44bae28c-e854-b972-0e24-214dfc0ca410",
                            "designerReference": [
                                {
                                    "_key": "componentLabel",
                                    "_value": "Row",
                                    "_type": "kv",
                                    "_attrDef": "p",
                                    "_useAsLabel": true
                                },
                                {
                                    "_key": "style",
                                    "_value": "",
                                    "_type": "kv",
                                    "_attrDef": "p"
                                },
                                {
                                    "_key": "class",
                                    "_value": "",
                                    "_type": "kv",
                                    "_attrDef": "p"
                                },
                                {
                                    "_key": "fxFlex",
                                    "_value": "",
                                    "_type": "kv",
                                    "_attrDef": "p"
                                },
                                {
                                    "_key": "fxLayoutGap",
                                    "_value": "",
                                    "_type": "kv",
                                    "_attrDef": "p"
                                },
                                {
                                    "_key": "wrap",
                                    "_value": "wrap",
                                    "_type": "a",
                                    "_attrDef": "p"
                                },
                                {
                                    "_key": "layoutAlign",
                                    "_value": "start",
                                    "_type": "a",
                                    "_attrDef": "p"
                                },
                                {
                                    "_key": "pLayoutAlign",
                                    "_value": "stretch",
                                    "_type": "a",
                                    "_attrDef": "p"
                                },
                                {
                                    "_key": "fxShow",
                                    "_value": "true",
                                    "_type": "kv",
                                    "_attrDef": "p"
                                },
                                {
                                    "_key": "fxHide",
                                    "_value": "false",
                                    "_type": "kv",
                                    "_attrDef": "p"
                                }
                            ],
                            "aee81da5-d85e-7641-481f-fc0cc536a070": {
                                "paletteKey": "HTML",
                                "parentEditorKey": "d3370a81-c14f-6b21-2ac1-80279d194f57",
                                "designerReference": [
                                    {
                                        "_key": "componentLabel",
                                        "_value": "HTML",
                                        "_type": "kv",
                                        "_attrDef": "p",
                                        "_useAsLabel": true
                                    },
                                    {
                                        "_key": "style",
                                        "_value": "",
                                        "_type": "kv",
                                        "_attrDef": "p"
                                    },
                                    {
                                        "_key": "class",
                                        "_value": "",
                                        "_type": "kv",
                                        "_attrDef": "p"
                                    },
                                    {
                                        "_key": "html",
                                        "_value": "<mat-form-field class=\"field-width\">\n\t<input matInput placeholder=\"Password\" formControlName=\"password\" value=\"\" type=\"password\">\n</mat-form-field>",
                                        "_type": "a",
                                        "_attrDef": "p"
                                    }
                                ]
                            }
                        },
                        "dba6d352-e6d5-5446-b8f8-b590dfc27119": {
                            "paletteKey": "FlexLayoutRow",
                            "parentEditorKey": "44bae28c-e854-b972-0e24-214dfc0ca410",
                            "designerReference": [
                                {
                                    "_key": "componentLabel",
                                    "_value": "Row",
                                    "_type": "kv",
                                    "_attrDef": "p",
                                    "_useAsLabel": true
                                },
                                {
                                    "_key": "style",
                                    "_value": "",
                                    "_type": "kv",
                                    "_attrDef": "p"
                                },
                                {
                                    "_key": "class",
                                    "_value": "",
                                    "_type": "kv",
                                    "_attrDef": "p"
                                },
                                {
                                    "_key": "fxFlex",
                                    "_value": "",
                                    "_type": "kv",
                                    "_attrDef": "p"
                                },
                                {
                                    "_key": "fxLayoutGap",
                                    "_value": "",
                                    "_type": "kv",
                                    "_attrDef": "p"
                                },
                                {
                                    "_key": "wrap",
                                    "_value": "wrap",
                                    "_type": "a",
                                    "_attrDef": "p"
                                },
                                {
                                    "_key": "layoutAlign",
                                    "_value": "start",
                                    "_type": "a",
                                    "_attrDef": "p"
                                },
                                {
                                    "_key": "pLayoutAlign",
                                    "_value": "stretch",
                                    "_type": "a",
                                    "_attrDef": "p"
                                },
                                {
                                    "_key": "fxShow",
                                    "_value": "true",
                                    "_type": "kv",
                                    "_attrDef": "p"
                                },
                                {
                                    "_key": "fxHide",
                                    "_value": "false",
                                    "_type": "kv",
                                    "_attrDef": "p"
                                }
                            ],
                            "0aa0a480-449e-e4e1-fc2b-01def94081d4": {
                                "paletteKey": "HTML",
                                "parentEditorKey": "dba6d352-e6d5-5446-b8f8-b590dfc27119",
                                "designerReference": [
                                    {
                                        "_key": "componentLabel",
                                        "_value": "HTML",
                                        "_type": "kv",
                                        "_attrDef": "p",
                                        "_useAsLabel": true
                                    },
                                    {
                                        "_key": "style",
                                        "_value": "",
                                        "_type": "kv",
                                        "_attrDef": "p"
                                    },
                                    {
                                        "_key": "class",
                                        "_value": "",
                                        "_type": "kv",
                                        "_attrDef": "p"
                                    },
                                    {
                                        "_key": "html",
                                        "_value": "<mat-form-field class=\"field-width\">\n\t<mat-label>Project</mat-label>\n\t<mat-select formControlName=\"project\">\n\t\t<mat-option *ngFor=\"let p of projectList\" [value]=\"p.code\">\n\t\t\t{{p.description}}\n\t\t</mat-option>\n\t</mat-select>\n</mat-form-field>",
                                        "_type": "a",
                                        "_attrDef": "p"
                                    }
                                ]
                            }
                        },
                        "9db0c0b1-c294-ebab-ea1c-f8bbc567cc93": {
                            "paletteKey": "FlexLayoutRow",
                            "parentEditorKey": "44bae28c-e854-b972-0e24-214dfc0ca410",
                            "designerReference": [
                                {
                                    "_key": "componentLabel",
                                    "_value": "Row",
                                    "_type": "kv",
                                    "_attrDef": "p",
                                    "_useAsLabel": true
                                },
                                {
                                    "_key": "style",
                                    "_value": "",
                                    "_type": "kv",
                                    "_attrDef": "p"
                                },
                                {
                                    "_key": "class",
                                    "_value": "",
                                    "_type": "kv",
                                    "_attrDef": "p"
                                },
                                {
                                    "_key": "fxFlex",
                                    "_value": "",
                                    "_type": "kv",
                                    "_attrDef": "p"
                                },
                                {
                                    "_key": "fxLayoutGap",
                                    "_value": "",
                                    "_type": "kv",
                                    "_attrDef": "p"
                                },
                                {
                                    "_key": "wrap",
                                    "_value": "wrap",
                                    "_type": "a",
                                    "_attrDef": "p"
                                },
                                {
                                    "_key": "layoutAlign",
                                    "_value": "start",
                                    "_type": "a",
                                    "_attrDef": "p"
                                },
                                {
                                    "_key": "pLayoutAlign",
                                    "_value": "stretch",
                                    "_type": "a",
                                    "_attrDef": "p"
                                },
                                {
                                    "_key": "fxShow",
                                    "_value": "true",
                                    "_type": "kv",
                                    "_attrDef": "p"
                                },
                                {
                                    "_key": "fxHide",
                                    "_value": "false",
                                    "_type": "kv",
                                    "_attrDef": "p"
                                }
                            ],
                            "3c9a0f47-a074-1699-d30f-8101b44501d0": {
                                "paletteKey": "NG-RaisedButton",
                                "parentEditorKey": "9db0c0b1-c294-ebab-ea1c-f8bbc567cc93",
                                "designerReference": [
                                    {
                                        "_key": "style",
                                        "_value": "font-weight:bold;",
                                        "_type": "kv",
                                        "_attrDef": "p"
                                    },
                                    {
                                        "_key": "class",
                                        "_value": "",
                                        "_type": "kv",
                                        "_attrDef": "p"
                                    },
                                    {
                                        "_key": "buttonname",
                                        "_value": "LOGIN",
                                        "_type": "a",
                                        "_attrDef": "p",
                                        "_useAsLabel": true
                                    },
                                    {
                                        "_key": "color",
                                        "_value": "primary",
                                        "_type": "kv",
                                        "_attrDef": "p"
                                    },
                                    {
                                        "_key": "(click)",
                                        "_value": "login()",
                                        "_type": "kv",
                                        "_attrDef": "p"
                                    },
                                    {
                                        "_key": "[disabled]",
                                        "_value": "",
                                        "_type": "kv",
                                        "_attrDef": "p"
                                    },
                                    {
                                        "_key": "[disableRipple]",
                                        "_value": "",
                                        "_type": "kv",
                                        "_attrDef": "p"
                                    },
                                    {
                                        "_key": "type",
                                        "_value": "",
                                        "_type": "kv",
                                        "_attrDef": "p"
                                    },
                                    {
                                        "_key": "routerLink",
                                        "_value": "",
                                        "_type": "kv",
                                        "_attrDef": "p"
                                    }
                                ]
                            }
                        }
                    }
                }
            }
        }
    }
}
